com\mycompany\numberguesser\Player.class
com\mycompany\numberguesser\GameState.class
com\mycompany\numberguesser\Game$1.class
com\mycompany\numberguesser\Tuple.class
com\mycompany\numberguesser\ModeLogics.class
com\mycompany\numberguesser\UserInterface.class
com\mycompany\numberguesser\GameMode.class
com\mycompany\numberguesser\ScoreRecord.class
com\mycompany\numberguesser\DifficultyLevel.class
com\mycompany\numberguesser\NumberGuesser.class
com\mycompany\numberguesser\Game.class
com\mycompany\numberguesser\SaveDir.class
com\mycompany\numberguesser\MainMenuOption.class
