C:\Users\Marcin\Documents\NetBeansProjects\NumberGuesser\src\main\java\com\mycompany\numberguesser\DifficultyLevel.java
C:\Users\Marcin\Documents\NetBeansProjects\NumberGuesser\src\main\java\com\mycompany\numberguesser\UserInterface.java
C:\Users\Marcin\Documents\NetBeansProjects\NumberGuesser\src\main\java\com\mycompany\numberguesser\Game.java
C:\Users\Marcin\Documents\NetBeansProjects\NumberGuesser\src\main\java\com\mycompany\numberguesser\Tuple.java
C:\Users\Marcin\Documents\NetBeansProjects\NumberGuesser\src\main\java\com\mycompany\numberguesser\MainMenuOption.java
C:\Users\Marcin\Documents\NetBeansProjects\NumberGuesser\src\main\java\com\mycompany\numberguesser\ModeLogics.java
C:\Users\Marcin\Documents\NetBeansProjects\NumberGuesser\src\main\java\com\mycompany\numberguesser\NumberGuesser.java
C:\Users\Marcin\Documents\NetBeansProjects\NumberGuesser\src\main\java\com\mycompany\numberguesser\SaveDir.java
C:\Users\Marcin\Documents\NetBeansProjects\NumberGuesser\src\main\java\com\mycompany\numberguesser\Player.java
C:\Users\Marcin\Documents\NetBeansProjects\NumberGuesser\src\main\java\com\mycompany\numberguesser\GameMode.java
